…
Plot:
    A histogram which represents the no of steps taken each day 



```r
mydf <- mydf %>% group_by(daycount) %>% mutate(steps_per_day = sum(steps, na.rm=TRUE)) 

mydf_steps <- mydf %>% group_by(daycount, date) %>% summarise(steps_per_day1=sum(steps,na.rm=TRUE))
mydf_steps
```

```
## # A tibble: 61 x 3
## # Groups:   daycount [?]
##    daycount       date steps_per_day1
##       <dbl>     <fctr>          <int>
##  1        1 2012-10-01              0
##  2        2 2012-10-02            126
##  3        3 2012-10-03          11352
##  4        4 2012-10-04          12116
##  5        5 2012-10-05          13294
##  6        6 2012-10-06          15420
##  7        7 2012-10-07          11015
##  8        8 2012-10-08              0
##  9        9 2012-10-09          12811
## 10       10 2012-10-10           9900
## # ... with 51 more rows
```
…
```r
summary(mydf_steps$steps_per_day1)
```

```
##    Min. 1st Qu.  Median    Mean 3rd Qu.    Max. 
##       0    6778   10395    9354   12811   21194
```

```r
mydf
```

```
## # A tibble: 17,568 x 6
## # Groups:   daycount [61]
##    steps       date interval month_num daycount steps_per_day
##    <int>     <fctr>    <int>     <dbl>    <dbl>         <int>
##  1    NA 2012-10-01        0        10        1             0
##  2    NA 2012-10-01        5        10        1             0
##  3    NA 2012-10-01       10        10        1             0
##  4    NA 2012-10-01       15        10        1             0
##  5    NA 2012-10-01       20        10        1             0
##  6    NA 2012-10-01       25        10        1             0
##  7    NA 2012-10-01       30        10        1             0
##  8    NA 2012-10-01       35        10        1             0
##  9    NA 2012-10-01       40        10        1             0
## 10    NA 2012-10-01       45        10        1             0
## # ... with 17,558 more rows
```
…
```r
mean_mydf <- mean(mydf$steps, na.rm=TRUE)

mydf2 <- mydf %>% group_by(daycount, datetime ) %>% 
    select(daycount, datetime,  steps_per_day) %>% 
    summarise (avg_steps_day  = mean(steps_per_day)  )

mydf2
```

```
## # A tibble: 61 x 3
## # Groups:   daycount [?]
##    daycount   datetime avg_steps_day
##       <dbl>     <dttm>         <dbl>
##  1        1 2012-10-01             0
##  2        2 2012-10-02           126
##  3        3 2012-10-03         11352
##  4        4 2012-10-04         12116
##  5        5 2012-10-05         13294
##  6        6 2012-10-06         15420
##  7        7 2012-10-07         11015
##  8        8 2012-10-08             0
##  9        9 2012-10-09         12811
## 10       10 2012-10-10          9900
## # ... with 51 more rows
```

```r
mydf1 <- mydf %>% group_by(pad_time)  %>% 
    summarise(avg_steps_per_interval = mean(steps, na.rm=TRUE))%>% 
    select(pad_time,  avg_steps_per_interval ) 


mydf1
```

```
## # A tibble: 288 x 2
##    pad_time avg_steps_per_interval
##       <chr>                  <dbl>
##  1     0000              1.7169811
##  2     0005              0.3396226
##  3     0010              0.1320755
##  4     0015              0.1509434
##  5     0020              0.0754717
##  6     0025              2.0943396
##  7     0030              0.5283019
##  8     0035              0.8679245
##  9     0040              0.0000000
## 10     0045              1.4716981
## # ... with 278 more rows
```

```r
mydf1 <- mydf1 %>% mutate(five_min_interval = 1:nrow(mydf1) )

mydf1
```

```
## # A tibble: 288 x 3
##    pad_time avg_steps_per_interval five_min_interval
##       <chr>                  <dbl>             <int>
##  1     0000              1.7169811                 1
##  2     0005              0.3396226                 2
##  3     0010              0.1320755                 3
##  4     0015              0.1509434                 4
##  5     0020              0.0754717                 5
##  6     0025              2.0943396                 6
##  7     0030              0.5283019                 7
##  8     0035              0.8679245                 8
##  9     0040              0.0000000                 9
## 10     0045              1.4716981                10
## # ... with 278 more rows
```
…
```r
#One and seven are sunday and saturday
mydf_imp <- mydf %>% group_by(pad_time) %>% 
    select (datetime, daycount, pad_time, steps) %>% 
    filter(is.na(steps)) 

mydf_imp
```

```
## # A tibble: 2,304 x 4
## # Groups:   pad_time [288]
##      datetime daycount pad_time steps
##        <dttm>    <dbl>    <chr> <int>
##  1 2012-10-01        1     0000    NA
##  2 2012-10-01        1     0005    NA
##  3 2012-10-01        1     0010    NA
##  4 2012-10-01        1     0015    NA
##  5 2012-10-01        1     0020    NA
##  6 2012-10-01        1     0025    NA
##  7 2012-10-01        1     0030    NA
##  8 2012-10-01        1     0035    NA
##  9 2012-10-01        1     0040    NA
## 10 2012-10-01        1     0045    NA
## # ... with 2,294 more rows
```

```r
mydf
```

```
## # A tibble: 17,568 x 8
## # Groups:   daycount [61]
##    steps       date interval month_num daycount steps_per_day pad_time
##    <int>     <fctr>    <int>     <dbl>    <dbl>         <int>    <chr>
##  1    NA 2012-10-01        0        10        1             0     0000
##  2    NA 2012-10-01        5        10        1             0     0005
##  3    NA 2012-10-01       10        10        1             0     0010
##  4    NA 2012-10-01       15        10        1             0     0015
##  5    NA 2012-10-01       20        10        1             0     0020
##  6    NA 2012-10-01       25        10        1             0     0025
##  7    NA 2012-10-01       30        10        1             0     0030
##  8    NA 2012-10-01       35        10        1             0     0035
##  9    NA 2012-10-01       40        10        1             0     0040
## 10    NA 2012-10-01       45        10        1             0     0045
## # ... with 17,558 more rows, and 1 more variables: datetime <dttm>
```

```r
mydf$steps <-impute(mydf$steps, mean)
mydf
```

```
## # A tibble: 17,568 x 8
## # Groups:   daycount [61]
##           steps       date interval month_num daycount steps_per_day
##    <S3: impute>     <fctr>    <int>     <dbl>    <dbl>         <int>
##  1      37.3826 2012-10-01        0        10        1             0
##  2      37.3826 2012-10-01        5        10        1             0
##  3      37.3826 2012-10-01       10        10        1             0
##  4      37.3826 2012-10-01       15        10        1             0
##  5      37.3826 2012-10-01       20        10        1             0
##  6      37.3826 2012-10-01       25        10        1             0
##  7      37.3826 2012-10-01       30        10        1             0
##  8      37.3826 2012-10-01       35        10        1             0
##  9      37.3826 2012-10-01       40        10        1             0
## 10      37.3826 2012-10-01       45        10        1             0
## # ... with 17,558 more rows, and 2 more variables: pad_time <chr>,
## #   datetime <dttm>
```

```r
mydf <- mydf %>% group_by(daycount) %>% 
    mutate(weekday = wday(datetime)) %>% 
    mutate(steps_per_day= sum(steps))
mydf
```

```
## # A tibble: 17,568 x 9
## # Groups:   daycount [61]
##           steps       date interval month_num daycount steps_per_day
##    <S3: impute>     <fctr>    <int>     <dbl>    <dbl>         <dbl>
##  1      37.3826 2012-10-01        0        10        1      10766.19
##  2      37.3826 2012-10-01        5        10        1      10766.19
##  3      37.3826 2012-10-01       10        10        1      10766.19
##  4      37.3826 2012-10-01       15        10        1      10766.19
##  5      37.3826 2012-10-01       20        10        1      10766.19
##  6      37.3826 2012-10-01       25        10        1      10766.19
##  7      37.3826 2012-10-01       30        10        1      10766.19
##  8      37.3826 2012-10-01       35        10        1      10766.19
##  9      37.3826 2012-10-01       40        10        1      10766.19
## 10      37.3826 2012-10-01       45        10        1      10766.19
## # ... with 17,558 more rows, and 3 more variables: pad_time <chr>,
## #   datetime <dttm>, weekday <dbl>
```
…
Findings:

By imputing the average of steps taken per interval, the mean and median of the steps per day has increased and now they are at same value.

## Are there differences in activity patterns between weekdays and weekends?



```r
mydf
```

```
## # A tibble: 17,568 x 9
## # Groups:   daycount [61]
##           steps       date interval month_num daycount steps_per_day
##    <S3: impute>     <fctr>    <int>     <dbl>    <dbl>         <dbl>
##  1      37.3826 2012-10-01        0        10        1      10766.19
##  2      37.3826 2012-10-01        5        10        1      10766.19
##  3      37.3826 2012-10-01       10        10        1      10766.19
##  4      37.3826 2012-10-01       15        10        1      10766.19
##  5      37.3826 2012-10-01       20        10        1      10766.19
##  6      37.3826 2012-10-01       25        10        1      10766.19
##  7      37.3826 2012-10-01       30        10        1      10766.19
##  8      37.3826 2012-10-01       35        10        1      10766.19
##  9      37.3826 2012-10-01       40        10        1      10766.19
## 10      37.3826 2012-10-01       45        10        1      10766.19
## # ... with 17,558 more rows, and 3 more variables: pad_time <chr>,
## #   datetime <dttm>, weekday <dbl>
```

```r
mydf <- mydf %>% group_by(pad_time) %>% 
    mutate(weekend= ifelse(weekday==1 | weekday==7, TRUE, FALSE))

mydf
```

```
## # A tibble: 17,568 x 10
## # Groups:   pad_time [288]
##           steps       date interval month_num daycount steps_per_day
##    <S3: impute>     <fctr>    <int>     <dbl>    <dbl>         <dbl>
##  1      37.3826 2012-10-01        0        10        1      10766.19
##  2      37.3826 2012-10-01        5        10        1      10766.19
##  3      37.3826 2012-10-01       10        10        1      10766.19
##  4      37.3826 2012-10-01       15        10        1      10766.19
##  5      37.3826 2012-10-01       20        10        1      10766.19
##  6      37.3826 2012-10-01       25        10        1      10766.19
##  7      37.3826 2012-10-01       30        10        1      10766.19
##  8      37.3826 2012-10-01       35        10        1      10766.19
##  9      37.3826 2012-10-01       40        10        1      10766.19
## 10      37.3826 2012-10-01       45        10        1      10766.19
## # ... with 17,558 more rows, and 4 more variables: pad_time <chr>,
## #   datetime <dttm>, weekday <dbl>, weekend <lgl>
```
…
mydf_wk_day <- mydf %>% group_by(pad_time) %>%
    select(pad_time, steps, weekend) %>% 
    filter (weekend ==FALSE) %>%
    summarise(steps_per_interval = mean(steps))%>%
    select(pad_time, steps_per_interval)
    
  
mydf_wk_day
```

```
## # A tibble: 288 x 2
##    pad_time steps_per_interval
##       <chr>              <dbl>
##  1     0000           7.006569
##  2     0005           5.384347
##  3     0010           5.139902
##  4     0015           5.162124
##  5     0020           5.073235
##  6     0025           6.295458
##  7     0030           5.606569
##  8     0035           6.006569
##  9     0040           4.984347
## 10     0045           6.584347
## # ... with 278 more rows
```
…
mydf_wk_end <- mydf %>% group_by(pad_time) %>%
    select(pad_time, steps, weekend) %>% 
    filter (weekend ==TRUE) %>%
    summarise(steps_per_interval = mean(steps))%>%
    select(pad_time, steps_per_interval)    
  
mydf_wk_end
```

```
## # A tibble: 288 x 2
##    pad_time steps_per_interval
##       <chr>              <dbl>
##  1     0000           4.672825
##  2     0005           4.672825
##  3     0010           4.672825
##  4     0015           4.672825
##  5     0020           4.672825
##  6     0025           7.922825
##  7     0030           4.672825
##  8     0035           4.672825
##  9     0040           4.672825
## 10     0045           5.047825
## # ... with 278 more rows
```
…
